{
  "gitzone": {
    "projectType": "npm",
    "module": {
      "githost": "gitlab.com",
      "gitscope": "mojoio",
      "gitrepo": "ora",
      "shortDescription": "an api abstraction package for ora.pm",
      "npmPackagename": "@mojoio/ora",
      "license": "MIT",
      "projectDomain": "mojo.io"
    }
  },
  "npmci": {
    "npmGlobalTools": [],
    "npmAccessLevel": "public"
  }
}